Verification/dump.vcd
$date
Tue Apr 11 03:27:49 2023
$end
$version
Riviera-PRO Version 2022.04.117.8517
$end
$timescale
1 ns
$end

$scope module fifo_tb $end
$var reg 1 ! clk $end
$var reg 1 " rst $end

$scope module intf_1 $end
$var reg 2 # operation [1:0] $end
$var reg 32 $ a_fpn [31:0] $end
$var reg 32 % b_fpn [31:0] $end
$var reg 32 & out [31:0] $end
$upscope $end


$scope module t1 $end
$upscope $end


$scope module uut $end
$var reg 1 ' clk $end
$var reg 1 ( rst $end
$var reg 2 ) operation [1:0] $end
$var reg 32 * a_fpn [31:0] $end
$var reg 32 + b_fpn [31:0] $end
$var reg 32 , out [31:0] $end
$var reg 1 - signal $end
$var reg 32 . a [31:0] $end
$var reg 32 / b [31:0] $end
$var reg 25 0 mant_a_as [24:0] $end
$var reg 25 1 mant_b_as [24:0] $end
$var reg 25 2 mant_out_as [24:0] $end
$var reg 8 3 exp_a [7:0] $end
$var reg 8 4 exp_b [7:0] $end
$var reg 8 5 exp_out [7:0] $end
$var reg 1 6 sign_a $end
$var reg 1 7 sign_b $end
$var reg 1 8 sign_out $end
$var reg 8 9 diff [7:0] $end
$var integer 32 : position $end
$var integer 32 ; shift $end
$var integer 32 < i $end
$var reg 9 = exp_out_m [8:0] $end
$var reg 26 > temp_a [25:0] $end
$var reg 26 ? temp_b [25:0] $end
$var reg 52 @ product [51:0] $end
$var reg 1 A normalised $end
$var reg 48 B out_normalised [47:0] $end
$var reg 23 C out_mant [22:0] $end
$var reg 93 D mant_a_d [92:0] $end
$var reg 93 E mant_b_d [92:0] $end
$var reg 93 F mant_out_d [92:0] $end
$var reg 1 G flag $end
$var reg 1 H is_zero_a $end
$var reg 1 I is_zero_b $end
$var reg 1 J is_inf_a $end
$var reg 1 K is_inf_b $end
$var reg 1 L is_nan_a $end
$var reg 1 M is_nan_b $end
$var reg 1 N overflow $end
$var reg 1 O underflow $end
$var reg 1 P both_mant_zero $end
$var reg 93 Q b1 [92:0] $end
$var reg 93 R quo [92:0] $end
$var reg 93 S quo_next [92:0] $end
$var reg 94 T acc [93:0] $end
$var reg 94 U acc_next [93:0] $end
$var reg 8 V i_d [7:0] $end
$var parameter 2 W A [1:0] $end
$var parameter 2 X B [1:0] $end
$var parameter 2 Y C [1:0] $end
$var parameter 2 Z D [1:0] $end
$upscope $end

$upscope $end

$enddefinitions $end
$dumpvars
0!
1"
bx #
bx $
bx %
bx &
0'
1(
bx )
bx *
bx +
bx ,
x-
bx .
bx /
bx 0
bx 1
bx 2
bx 3
bx 4
bx 5
x6
x7
x8
bx 9
bx :
bx ;
bx <
bx =
bx >
bx ?
bx @
xA
bx B
bx C
bx D
bx E
bx F
xG
xH
xI
xJ
xK
xL
xM
xN
xO
xP
bx Q
bx R
bx S
bx T
bx U
bx V
b0 W
b1 X
b10 Y
b11 Z
$end
b0 #
b0 $
b0 %
b0 )
b0 *
b0 +
1H
0J
0L
1P
1I
0K
0M
#10
1!
1'
b0 ,
b0 &
#20
0"
0!
0'
0(
#30
1!
1'
1-
b0 .
b0 /
06
07
b0 3
b0 4
b0 0
b0 1
b0 9
08
b0 2
b0 :
b11111111111111111111111111111111 <
b10111 ;
b11101001 5
b1110100100000000000000000000000 ,
b1110100100000000000000000000000 &
b10 #
b11110100111100010110110011000101 $
b11010111101100001001110011100 %
b10 )
b11110100111100010110110011000101 *
b11010111101100001001110011100 +
0H
0P
0I
#40
0!
0'
#50
1!
1'
16
18
b11101001 3
b110101 4
b111100010110110011000101 >
b111101100001001110011100 ?
b111010000001000100000011011111101110011100001100 @
1A
b111010000001000100000011011111101110011100001100 B
b11010000001000100000011 C
b10100000 =
0N
0O
b11010000011010000001000100000011 ,
b11010000011010000001000100000011 &
#60
0!
0'
#70
1!
1'
#80
0!
0'
#90
1!
1'
b1 #
b10101010111100100100010010111001 $
b10100000011000111100111011100110 %
b1 )
b10101010111100100100010010111001 *
b10100000011000111100111011100110 +
#100
0!
0'
#110
1!
1'
0-
b10101010111100100100010010111001 .
b10100000011000111100111011100110 /
b1010101 3
b1000000 4
b111100100100010010111001 0
b111 1
b10101 9
b111100100100010010110010 2
b1010101 5
b10101010111100100100010010110010 ,
b10101010111100100100010010110010 &
#120
0!
0'
#130
1!
1'
b111 1
#140
0!
0'
#150
1!
1'
b111 1
b10 #
b110100010011001011111000010101 $
b1011001011000101001101101 %
b10 )
b110100010011001011111000010101 *
b1011001011000101001101101 +
#160
0!
0'
#170
1!
1'
06
08
b1101000 3
b10 4
b110011001011111000010101 >
b111001011000101001101101 ?
b101101111001010010111110011011010100000011110001 @
b101101111001010010111110011011010100000011110001 B
b1101111001010010111110 C
b111101100 =
1O
b0 ,
b0 &
#180
0!
0'
#190
1!
1'
#200
0!
0'
#210
1!
1'
b0 #
b1010001101000000001111000011000 $
b1010101000101010001010101101101 %
b0 )
b1010001101000000001111000011000 *
b1010101000101010001010101101101 +
#220
0!
0'
#230
1!
1'
1-
b1010101000101010001010101101101 .
b1010001101000000001111000011000 /
b10101010 3
b10100011 4
b100101010001010101101101 0
b10100000000111100 1
b111 9
b100101100101010110101001 2
b10101010 5
b1010101000101100101010110101001 ,
b1010101000101100101010110101001 &
#240
0!
0'
#250
1!
1'
b10100000000111100 1
#260
0!
0'
#270
1!
1'
b10100000000111100 1
b1 #
b10000010011111000010111111000001 $
b110110010011101100011110011100 %
b1 )
b10000010011111000010111111000001 *
b110110010011101100011110011100 +
#280
0!
0'
#290
1!
1'
0-
b110110010011101100011110011100 .
b10000010011111000010111111000001 /
16
17
b1101100 3
b100 4
b110011101100011110011100 0
b0 1
b1101000 9
18
b110011101100011110011100 2
b1101100 5
b10110110010011101100011110011100 ,
b10110110010011101100011110011100 &
#300
0!
0'
#310
1!
1'
b0 1
#320
0!
0'
#330
1!
1'
b0 1
b10 #
b11010001110000100011100111110110 $
b11111000001010101100000001101101 %
b10 )
b11010001110000100011100111110110 *
b11111000001010101100000001101101 +
#340
0!
0'
#350
1!
1'
08
b10100011 3
b11110000 4
b110000100011100111110110 >
b101010101100000001101101 ?
b100000011000110001111011100001110010110110111110 @
b100000011000110001111011100001110010110110111110 B
b11000110001111011 C
b100010101 =
1N
0O
b1111111100000000000000000000000 ,
b1111111100000000000000000000000 &
#360
0!
0'
#370
1!
1'
#380
0!
0'
#390
1!
1'
b1 #
b111001001001010101110111000100 $
b11111001101111111000111011010000 %
b1 )
b111001001001010101110111000100 *
b11111001101111111000111011010000 +
#400
0!
0'
#410
1!
1'
b11111001101111111000111011010000 .
b111001001001010101110111000100 /
06
07
b11110011 3
b1110010 4
b101111111000111011010000 0
b0 1
b10000001 9
b101111111000111011010000 2
b11110011 5
b1111001101111111000111011010000 ,
b1111001101111111000111011010000 &
#420
0!
0'
#430
1!
1'
b0 1
#440
0!
0'
#450
1!
1'
b0 1
b0 #
b110010111011111001100111000100 $
b10101010111001101101100000110110 %
b0 )
b110010111011111001100111000100 *
b10101010111001101101100000110110 +
#460
0!
0'
#470
1!
1'
1-
b110010111011111001100111000100 .
b10101010111001101101100000110110 /
17
b1100101 3
b1010101 4
b111011111001100111000100 0
b11100110 1
b10000 9
b111011111001100011011110 2
b1100101 5
b110010111011111001100011011110 ,
b110010111011111001100011011110 &
#480
0!
0'
#490
1!
1'
b11100110 1
#500
0!
0'
#510
1!
1'
b11100110 1
b11000111101011110100110100001111 $
b11001101000111111110101001011010 %
b11000111101011110100110100001111 *
b11001101000111111110101001011010 +
#520
0!
0'
#530
1!
1'
b11001101000111111110101001011010 .
b11000111101011110100110100001111 /
16
b10011010 3
b10001111 4
b100111111110101001011010 0
b1010111101001 1
b1011 9
18
b101000000000000001000011 2
b10011010 5
b11001101001000000000000001000011 ,
b11001101001000000000000001000011 &
#540
0!
0'
#550
1!
1'
b1010111101001 1
#560
0!
0'
#570
1!
1'
b1010111101001 1
b1 #
b11100011000101000011111101111111 $
b1110110010111101001110100101011 %
b1 )
b11100011000101000011111101111111 *
b1110110010111101001110100101011 +
#580
0!
0'
#590
1!
1'
0-
b1110110010111101001110100101011 .
b11100011000101000011111101111111 /
b11101100 3
b11000110 4
b110111101001110100101011 0
b0 1
b100110 9
b110111101001110100101011 2
b11101100 5
b11110110010111101001110100101011 ,
b11110110010111101001110100101011 &
#600
0!
0'
#610
1!
1'
b0 1
#620
0!
0'
#630
1!
1'
b0 1
b11 #
b1111010001000010001100001101 $
b1000101111001010010001001011110 %
b11 )
b1111010001000010001100001101 *
b1000101111001010010001001011110 +
#640
0!
0'
#650
1!
1'
06
07
b0 ,
b0 &
#660
0!
0'
#670
1!
1'
#680
0!
0'
#690
1!
1'
b1010110100101111100110001000 $
b1011001101111000100101100000011 %
b1010110100101111100110001000 *
b1011001101111000100101100000011 +
#700
0!
0'
#710
1!
1'
#720
0!
0'
#730
1!
1'
#740
0!
0'
#750
1!
1'
b1 #
b1101100010111001111110111011000 $
b1011110101101110111110101000111 %
b1 )
b1101100010111001111110111011000 *
b1011110101101110111110101000111 +
#760
0!
0'
#770
1!
1'
b1101100010111001111110111011000 .
b1011110101101110111110101000111 /
17
b11011000 3
b10111101 4
b110111001111110111011000 0
b0 1
b11011 9
08
b110111001111110111011000 2
b11011000 5
b1101100010111001111110111011000 ,
b1101100010111001111110111011000 &
#780
0!
0'
#790
1!
1'
b0 1
#800
0!
0'
#810
1!
1'
b0 1
b10 #
b11000001000100011010011111110101 $
b10110000001011011001010010011010 %
b10 )
b11000001000100011010011111110101 *
b10110000001011011001010010011010 +
#820
0!
0'
#830
1!
1'
16
b10000010 3
b1100000 4
b100100011010011111110101 >
b101011011001010010011010 ?
b11000101100001100001101010010011010110101100010 @
0A
b110001011000011000011010100100110101101011000100 B
b10001011000011000011010 C
b1100011 =
0N
b110001110001011000011000011010 ,
b110001110001011000011000011010 &
#840
0!
0'
#850
1!
1'
#860
0!
0'
#870
1!
1'
b10001111100010110110010111011 $
b11110010001000011110110111100 %
b10001111100010110110010111011 *
b11110010001000011110110111100 +
#880
0!
0'
#890
1!
1'
06
07
b100011 3
b111100 4
b111100010110110010111011 >
b110001000011110110111100 ?
b101110010001000101110111011000000110100001010100 @
1A
b101110010001000101110111011000000110100001010100 B
b1110010001000101110111 C
b111100001 =
1O
b0 ,
b0 &
#900
0!
0'
#910
1!
1'
#920
0!
0'
#930
1!
1'
b11 #
b111001011000010010010010101001 $
b1000111111111010111000000100001 %
b11 )
b111001011000010010010010101001 *
b1000111111111010111000000100001 +
#940
0!
0'
#950
1!
1'
b1110010 3
b10001111 4
b111000010010010010101001000000000000000000000000000000000000000000000000000000000000000000000 D
b111111 E
b1010110 9
1G
b1100001 5
b111111 Q
b111001001011011110000111000111000111000111000111000111000111000111000111000111000111000 R
b1110000 T
b1011101 V
b111001001011011110000111000111000111000111000111000111000111000111000111000111000111000 S
b1110000 U
b111001001011011110000111000111000111000111000111000111000111000111000111000111000111000000000 F
b110000111001001011011110000111 ,
b110000111001001011011110000111 &
#960
0!
0'
#970
1!
1'
b0 ,
b0 &
#980
0!
0'
#990
1!
1'
b0 #
b100111100110110111010001000100 $
b1101000101110101000101100010111 %
b0 )
b100111100110110111010001000100 *
b1101000101110101000101100010111 +
#1000
0!
0'
#1010
1!
1'
1-
b1101000101110101000101100010111 .
b100111100110110111010001000100 /
b11010001 3
b1001111 4
b101110101000101100010111 0
b0 1
b10000010 9
b101110101000101100010111 2
b11010001 5
b1101000101110101000101100010111 ,
b1101000101110101000101100010111 &
#1020
0!
0'
#1030
1!
1'
b0 1
#1040
0!
0'
#1050
1!
1'
b0 1
b10 #
b11000101001000110111000000010110 $
b10010011011000001110100101001110 %
b10 )
b11000101001000110111000000010110 *
b10010011011000001110100101001110 +
#1060
0!
0'
#1070
1!
1'
16
17
b10001010 3
b100110 4
b101000110111000000010110 >
b111000001110100101001110 ?
b100011111001011100000110000100000010110010110100 @
b100011111001011100000110000100000010110010110100 B
b11111001011100000110 C
b110010 =
0O
b11001000011111001011100000110 ,
b11001000011111001011100000110 &
#1080
0!
0'
#1090
1!
1'
#1100
0!
0'
#1110
1!
1'
b10110011001011100111101110100001 $
b1011110110011001000010111000001 %
b10110011001011100111101110100001 *
b1011110110011001000010111000001 +
#1120
0!
0'
#1130
1!
1'
07
18
b1100110 3
b10111101 4
b101011100111101110100001 >
b110011001000010111000001 ?
b100010110110010110101110000100011101100101100001 @
b100010110110010110101110000100011101100101100001 B
b10110110010110101110 C
b10100101 =
b11010010100010110110010110101110 ,
b11010010100010110110010110101110 &
#1140
0!
0'
#1150
1!
1'
#1160
0!
0'
#1170
1!
1'
b1110111100101101010101001111010 $
b1011010101000101100111110000001 %
b1110111100101101010101001111010 *
b1011010101000101100111110000001 +
#1180
0!
0'
#1190
1!
1'
06
08
b11101111 3
b10110101 4
b100101101010101001111010 >
b101000101100111110000001 ?
b10111111101001000000000111110001000110101111010 @
0A
b101111111010010000000001111100010001101011110100 B
b1111111010010000000001 C
b100100101 =
1N
b1111111100000000000000000000000 ,
b1111111100000000000000000000000 &
